[{
	"date": "2021-06-24",
	"tiles_url": "https://tiling.listlabs.net/2d-tiles/caf31a30-24f7-4f44-ab43-fde8134248cc/tiles",
	"input_file_url": "https://tiling.listlabs.net/2d-tiles/3dems/workspace3/2021-06-24/dac1162b94d40e51aeac40cfa8f872c6/response.tiff"
}, {
	"date": "2021-07-24",
	"tiles_url": "https://tiling.listlabs.net/2d-tiles/590140d1-f3e6-4707-8117-0e3cecb7dcb1/tiles",
	"input_file_url": "https://tiling.listlabs.net/2d-tiles/3dems/workspace3/2021-07-24/f7df5fb7c1f5aa1f4dd98dde32caa25b/response.tiff"
}, {
	"date": "2021-06-29",
	"tiles_url": "https://tiling.listlabs.net/2d-tiles/98a0724c-d8a4-494f-85f9-e37ff9542f41/tiles",
	"input_file_url": "https://tiling.listlabs.net/2d-tiles/3dems/workspace3/2021-06-29/ed9de5ea5069971526e5355a66b8a601/response.tiff"
}, {
	"date": "2021-03-01",
	"tiles_url": "https://tiling.listlabs.net/2d-tiles/6784ccd3-9de4-487c-963d-7c4490aa6446/tiles",
	"input_file_url": "https://tiling.listlabs.net/2d-tiles/3dems/workspace3/2021-03-01/39cd355f0eb4d0ea236c91f871b9d554/response.tiff"
}, {
	"date": "2021-03-31",
	"tiles_url": "https://tiling.listlabs.net/2d-tiles/5b97ce64-49e6-44de-9ff0-7ff8701fa818/tiles",
	"input_file_url": "https://tiling.listlabs.net/2d-tiles/3dems/workspace3/2021-03-31/6a81209ce7c0c9a46f3c14913a98fccc/response.tiff"
}, {
	"date": "2021-07-06",
	"tiles_url": "https://tiling.listlabs.net/2d-tiles/7090a1f2-404b-4d90-9417-be4a4be3f248/tiles",
	"input_file_url": "https://tiling.listlabs.net/2d-tiles/3dems/workspace3/2021-07-06/16d1114a3add4d5a40c4efb16aec739d/response.tiff"
}, {
	"date": "2021-09-24",
	"tiles_url": "https://tiling.listlabs.net/2d-tiles/2a739df4-f388-49c0-85a3-f519c1c6addb/tiles",
	"input_file_url": "https://tiling.listlabs.net/2d-tiles/3dems/workspace3/2021-09-24/0b5147a41cebdb3547f6f41109369faa/response.tiff"
}, {
	"date": "2021-02-24d",
	"tiles_url": "https://tiling.listlabs.net/2d-tiles/f2d7e553-dee1-4d09-8df0-be59d688b8fd/tiles",
	"input_file_url": "https://tiling.listlabs.net/2d-tiles/3dems/workspace3/2021-02-24/30207fa407180f260739e70dca9f133d/response.tiff"
}, {
	"date": "2021-02-26",
	"tiles_url": "https://tiling.listlabs.net/2d-tiles/3d173825-1855-41ed-b770-8526fe064bad/tiles",
	"input_file_url": "https://tiling.listlabs.net/2d-tiles/3dems/workspace3/2021-02-26/cdfc609a1413a6c253607e1db4faa293/response.tiff"
}, {
	"date": "2021-08-15",
	"tiles_url": "https://tiling.listlabs.net/2d-tiles/965cb3d5-4810-432f-8e29-6115b04d70f0/tiles",
	"input_file_url": "https://tiling.listlabs.net/2d-tiles/3dems/workspace3/2021-08-15/9c6bc31c558564ebffa903a5d0e25970/response.tiff"
}, {
	"date": "2021-07-29",
	"tiles_url": "https://tiling.listlabs.net/2d-tiles/5d20b540-1e5b-4e2b-b693-687ca7ad47a3/tiles",
	"input_file_url": "https://tiling.listlabs.net/2d-tiles/3dems/workspace3/2021-07-29/7d02c43fc9d58f10d3e9f9b5d2f8dbd7/response.tiff"
}, {
	"date": "2021-04-05",
	"tiles_url": "https://tiling.listlabs.net/2d-tiles/3a7f106c-ceb4-4439-8e1c-3c40ef44e59f/tiles",
	"input_file_url": "https://tiling.listlabs.net/2d-tiles/3dems/workspace3/2021-04-05/733d0037808604ef248152d5a3384d98/response.tiff"
}]